{
    "products": [
        {
            "id": "123456",
            "title": "Santa fe 2.2. 197 pk-automatic - full premnium",
            "link": "Santa-fe-2.2.-197-pk-automatic---full-premnium-12345",
            "desc": "Lorem ipsum dolor sit, amet consectetur adipisicing elit. Soluta ea quo, eveniet ipsam optio nihil perspiciatis quas beatae a temporibus provident architecto dolore alias reiciendis rem cum mollitia ab! Saepe!",
            "status": "Topzoekertje",
            "uploadDate": "13 december 2017",
            "imageUrl": "http://via.placeholder.com/350x150?text=thumbnail",
            "location": "Bezorgt in heel Belgie"
        },
        {
            "id":"12345",
            "title": "Santa fe 2.2. 197 pk-automatic - full premnium",
            "link": "Santa-fe-2.2.-197-pk-automatic---full-premnium-12345",
            "desc": "Lorem ipsum dolor sit, amet consectetur adipisicing elit. Soluta ea quo, eveniet ipsam optio nihil perspiciatis quas beatae a temporibus provident architecto dolore alias reiciendis rem cum mollitia ab! Saepe!",
            "status": "Topzoekertje",
            "uploadDate": "13 december 2017",
            "imageUrl": "http://via.placeholder.com/350x150?text=thumbnail",
            "location": "Bezorgt in heel Belgie"
        },
        {
            "id":"12345",
            "title": "Santa fe 2.2. 197 pk-automatic - full premnium",
            "link": "Santa-fe-2.2.-197-pk-automatic---full-premnium-12345",
            "desc": "Lorem ipsum dolor sit, amet consectetur adipisicing elit. Soluta ea quo, eveniet ipsam optio nihil perspiciatis quas beatae a temporibus provident architecto dolore alias reiciendis rem cum mollitia ab! Saepe!",
            "status": "Topzoekertje",
            "uploadDate": "13 december 2017",
            "imageUrl": "http://via.placeholder.com/350x150?text=thumbnail",
            "location": "Bezorgt in heel Belgie"
        },
        {
            "id":"12345",
            "title": "Santa fe 2.2. 197 pk-automatic - full premnium",
            "link": "Santa-fe-2.2.-197-pk-automatic---full-premnium-12345",
            "desc": "Lorem ipsum dolor sit, amet consectetur adipisicing elit. Soluta ea quo, eveniet ipsam optio nihil perspiciatis quas beatae a temporibus provident architecto dolore alias reiciendis rem cum mollitia ab! Saepe!",
            "status": "Topzoekertje",
            "uploadDate": "13 december 2017",
            "imageUrl": "http://via.placeholder.com/350x150?text=thumbnail",
            "location": "Bezorgt in heel Belgie"
        }
    ]
}